Debug information for file: javali_tests/HW4_Brudis/1.javali
AST Resulting From Parsing Stage:
ClassDecl (name: Main, superClass: Object)
| MethodDecl (argumentNames: [a], argumentTypes: [int], name: m, returnType: int)
| | Seq ()
| | Seq ()
| | | ReturnStmt ()
| | | | IntConst (value: 1)
| MethodDecl (argumentNames: [], argumentTypes: [], name: main, returnType: void)
| | Seq ()
| | | VarDecl (name: res, type: int)
| | Seq ()
| | | Assign ()
| | | | Var (name: res)
| | | | UnaryOp (operator: U_MINUS)
| | | | | IntConst (value: 1)
| | | Assign ()
| | | | Var (name: res)
| | | | MethodCallExpr (methodName: m)
| | | | | ThisRef ()
| | | | | IntConst (value: 1)

Phase exec failed because we expected to see:

But we actually saw:
Error: 139

The difference is:
At line   1 /   1:
< 
> Error: 139

