Debug information for file: javali_tests/HW2/OkSimpleReturn.javali
AST Resulting From Parsing Stage:
ClassDecl (name: Main, superClass: Object)
| MethodDecl (argumentNames: [], argumentTypes: [], name: m, returnType: int)
| | Seq ()
| | Seq ()
| | | ReturnStmt ()
| | | | IntConst (value: 0)
| MethodDecl (argumentNames: [], argumentTypes: [], name: main, returnType: void)
| | Seq ()
| | | VarDecl (name: res, type: int)
| | Seq ()
| | | Assign ()
| | | | Var (name: res)
| | | | UnaryOp (operator: U_MINUS)
| | | | | IntConst (value: 1)
| | | Assign ()
| | | | Var (name: res)
| | | | MethodCallExpr (methodName: m)
| | | | | ThisRef ()
| | | BuiltInWrite ()
| | | | Var (name: res)
| | | BuiltInWriteln ()
| | | Assign ()
| | | | Var (name: res)
| | | | MethodCallExpr (methodName: m)
| | | | | ThisRef ()
| | | BuiltInWrite ()
| | | | Var (name: res)
| | | BuiltInWriteln ()

Phase exec failed because we expected to see:
0
0

But we actually saw:
Error: 139

The difference is:
At line   1 /   1:
< 0
< 0
> Error: 139

